{
    "areas": [
        {
            "name": "Ward A",
            "inspections": [
                {
                    "name": "Health Check",
                    "questions": [
                        {
                            "content": "Is the patient sick?",
                            "answers": [
                                {
                                    "content": "Yes",
                                    "score": 0
                                },
                                {
                                    "content": "No",
                                    "score": 100
                                }
                            ]
                        },
                        {
                            "content": "What colour is the patient's tongue?",
                            "answers": [
                                {
                                    "content": "Green",
                                    "score": 5
                                },
                                {
                                    "content": "Red with white spots",
                                    "score": 30
                                },
                                {
                                    "content": "Normal",
                                    "score": 100
                                }
                            ]
                        },
                        {
                            "content": "How happy is the patient?",
                            "answers": [
                                {
                                    "content": "Sad",
                                    "score": 5
                                },
                                {
                                    "content": "Fine",
                                    "score": 60
                                },
                                {
                                    "content": "Great",
                                    "score": 100
                                }
                            ]
                        }
                    ]
                },
                {
                    "name": "Ward Check",
                    "questions": [
                        {
                            "content": "Is everyone alive?",
                            "answers": [
                                {
                                    "content": "Yes",
                                    "score": 100
                                },
                                {
                                    "content": "No",
                                    "score": 0
                                }
                            ]
                        }
                    ]
                }
            ]
        },
        {
            "name": "Ward B",
            "inspections": [
                {
                    "name": "Health Check",
                    "questions": [
                        {
                            "content": "Is the patient sick?",
                            "answers": [
                                {
                                    "content": "Yes",
                                    "score": 0
                                },
                                {
                                    "content": "No",
                                    "score": 100
                                }
                            ]
                        },
                        {
                            "content": "What colour is the patient's tongue?",
                            "answers": [
                                {
                                    "content": "Green",
                                    "score": 5
                                },
                                {
                                    "content": "Red with white spots",
                                    "score": 30
                                },
                                {
                                    "content": "Normal",
                                    "score": 100
                                }
                            ]
                        },
                        {
                            "content": "How happy is the patient",
                            "answers": [
                                {
                                    "content": "Sad",
                                    "score": 5
                                },
                                {
                                    "content": "Fine",
                                    "score": 60
                                },
                                {
                                    "content": "Great",
                                    "score": 100
                                }
                            ]
                        }
                    ]
                },
                {
                    "name": "Ward Check",
                    "questions": [
                        {
                            "content": "Is everyone alive?",
                            "answers": [
                                {
                                    "content": "Yes",
                                    "score": 100
                                },
                                {
                                    "content": "No",
                                    "score": 0
                                }
                            ]
                        }
                    ]
                },
                {
                    "name": "Ward B Special Check",
                    "questions": [
                        {
                            "content": "Are the windows open?",
                            "answers": [
                                {
                                    "content": "Yes",
                                    "score": 100
                                },
                                {
                                    "content": "No",
                                    "score": 0
                                }
                            ]
                        },
                        {
                            "content": "Which TV programme is playing?",
                            "answers": [
                                {
                                    "content": "Doctor Who",
                                    "score": 100
                                },
                                {
                                    "content": "Eastenders",
                                    "score": 0
                                },
                                {
                                    "content": "Friends",
                                    "score": 60
                                }
                            ]
                        }
                    ]
                }
            ]
        }
    ]
}
